\relax 
\@writefile{toc}{\contentsline {chapter}{T\IeC {\'\i }tulo do texto}{9}}
\@writefile{lof}{\addvspace {10\p@ }}
\@writefile{lot}{\addvspace {10\p@ }}
\@writefile{toc}{\contentsline {paragraph}{}{9}}
\@setckpt{INPUTS}{
\setcounter{page}{12}
\setcounter{equation}{0}
\setcounter{enumi}{0}
\setcounter{enumii}{0}
\setcounter{enumiii}{0}
\setcounter{enumiv}{0}
\setcounter{footnote}{0}
\setcounter{mpfootnote}{0}
\setcounter{part}{0}
\setcounter{chapter}{1}
\setcounter{section}{0}
\setcounter{subsection}{0}
\setcounter{subsubsection}{0}
\setcounter{paragraph}{0}
\setcounter{subparagraph}{0}
\setcounter{figure}{0}
\setcounter{table}{0}
\setcounter{@sectionNumCenter}{0}
\setcounter{lips@count}{0}
\setcounter{pp@next@reset}{0}
\setcounter{vslineno}{0}
\setcounter{poemline}{0}
\setcounter{fvsline}{0}
\setcounter{modulo@vs}{0}
\setcounter{verse@envctr}{0}
\setcounter{chrsinstr}{0}
\setcounter{DefaultLines}{2}
\setcounter{L@lines}{0}
}
