\relax 
\catcode`"\active
\@input{CREDITOS.aux}
\select@language{brazilian}
\@writefile{toc}{\select@language{brazilian}}
\@writefile{lof}{\select@language{brazilian}}
\@writefile{lot}{\select@language{brazilian}}
\select@language{greek}
\@writefile{toc}{\select@language{greek}}
\@writefile{lof}{\select@language{greek}}
\@writefile{lot}{\select@language{greek}}
\select@language{brazilian}
\@writefile{toc}{\select@language{brazilian}}
\@writefile{lof}{\select@language{brazilian}}
\@writefile{lot}{\select@language{brazilian}}
\@input{ROSTO.aux}
\@input{PRETAS.aux}
\@input{INPUTS.aux}
\@input{FINAIS.aux}
\newlabel{LastPage}{{}{16}}
\xdef\lastpage@lastpage{16}
\gdef\lastpage@lastpageHy{}
